EESchema Schematic File Version 4
EELAYER 30 0
EELAYER END
$Descr A4 11693 8268
encoding utf-8
Sheet 1 1
Title ""
Date ""
Rev ""
Comp ""
Comment1 ""
Comment2 ""
Comment3 ""
Comment4 ""
$EndDescr
$Comp
L ISL29125:ISL29125 U1
U 1 1 5D5B87B2
P 4900 3375
F 0 "U1" H 4875 3700 50  0000 C CNN
F 1 "ISL29125" H 4875 3609 50  0000 C CNN
F 2 "ISL29125:ISL29125" H 4900 3375 50  0001 C CNN
F 3 "" H 4900 3375 50  0001 C CNN
	1    4900 3375
	1    0    0    -1  
$EndComp
$Comp
L power:GND #PWR0101
U 1 1 5D5B8EBC
P 4075 3800
F 0 "#PWR0101" H 4075 3550 50  0001 C CNN
F 1 "GND" H 4080 3627 50  0000 C CNN
F 2 "" H 4075 3800 50  0001 C CNN
F 3 "" H 4075 3800 50  0001 C CNN
	1    4075 3800
	1    0    0    -1  
$EndComp
$Comp
L Device:R_Small R1
U 1 1 5D5B9437
P 5475 3025
F 0 "R1" H 5534 3071 50  0000 L CNN
F 1 "R_Small" H 5534 2980 50  0000 L CNN
F 2 "Resistor_SMD:R_0603_1608Metric_Pad1.05x0.95mm_HandSolder" H 5475 3025 50  0001 C CNN
F 3 "~" H 5475 3025 50  0001 C CNN
	1    5475 3025
	-1   0    0    1   
$EndComp
Wire Wire Line
	5300 3475 5475 3475
$Comp
L Device:R_Small R2
U 1 1 5D5B9678
P 5975 3025
F 0 "R2" H 6034 3071 50  0000 L CNN
F 1 "R_Small" H 6034 2980 50  0000 L CNN
F 2 "Resistor_SMD:R_0603_1608Metric_Pad1.05x0.95mm_HandSolder" H 5975 3025 50  0001 C CNN
F 3 "~" H 5975 3025 50  0001 C CNN
	1    5975 3025
	-1   0    0    1   
$EndComp
Wire Wire Line
	5300 3275 5975 3275
Wire Wire Line
	5475 3475 5475 3125
Wire Wire Line
	5975 2925 5975 2825
Wire Wire Line
	5475 2925 5475 2825
$Comp
L power:VDD #PWR0104
U 1 1 5D5BA955
P 4325 2775
F 0 "#PWR0104" H 4325 2625 50  0001 C CNN
F 1 "VDD" H 4342 2948 50  0000 C CNN
F 2 "" H 4325 2775 50  0001 C CNN
F 3 "" H 4325 2775 50  0001 C CNN
	1    4325 2775
	1    0    0    -1  
$EndComp
Wire Wire Line
	4325 3125 4325 3275
Wire Wire Line
	4325 3275 4450 3275
Wire Wire Line
	4325 3475 4450 3475
$Comp
L Connector_Generic:Conn_01x05 J1
U 1 1 5D5BC65F
P 6975 3275
F 0 "J1" H 7055 3317 50  0000 L CNN
F 1 "Conn_01x05" H 7055 3226 50  0000 L CNN
F 2 "Connector_PinHeader_2.54mm:PinHeader_1x05_P2.54mm_Vertical" H 6975 3275 50  0001 C CNN
F 3 "~" H 6975 3275 50  0001 C CNN
	1    6975 3275
	1    0    0    -1  
$EndComp
$Comp
L power:VDD #PWR0105
U 1 1 5D5BDBCA
P 6475 3275
F 0 "#PWR0105" H 6475 3125 50  0001 C CNN
F 1 "VDD" V 6493 3402 50  0000 L CNN
F 2 "" H 6475 3275 50  0001 C CNN
F 3 "" H 6475 3275 50  0001 C CNN
	1    6475 3275
	0    -1   -1   0   
$EndComp
Wire Wire Line
	6475 3275 6775 3275
$Comp
L power:GND #PWR0106
U 1 1 5D5BE923
P 6475 3175
F 0 "#PWR0106" H 6475 2925 50  0001 C CNN
F 1 "GND" V 6480 3047 50  0000 R CNN
F 2 "" H 6475 3175 50  0001 C CNN
F 3 "" H 6475 3175 50  0001 C CNN
	1    6475 3175
	0    1    1    0   
$EndComp
Wire Wire Line
	6475 3175 6775 3175
$Comp
L Device:C C2
U 1 1 5D5C089F
P 3925 3500
F 0 "C2" H 4040 3546 50  0000 L CNN
F 1 "C" H 4040 3455 50  0000 L CNN
F 2 "Capacitor_SMD:C_0603_1608Metric_Pad1.05x0.95mm_HandSolder" H 3963 3350 50  0001 C CNN
F 3 "~" H 3925 3500 50  0001 C CNN
	1    3925 3500
	1    0    0    -1  
$EndComp
$Comp
L Device:C C1
U 1 1 5D5C0FD3
P 3625 3500
F 0 "C1" H 3740 3546 50  0000 L CNN
F 1 "C" H 3740 3455 50  0000 L CNN
F 2 "Capacitor_SMD:C_0603_1608Metric_Pad1.05x0.95mm_HandSolder" H 3663 3350 50  0001 C CNN
F 3 "~" H 3625 3500 50  0001 C CNN
	1    3625 3500
	1    0    0    -1  
$EndComp
Wire Wire Line
	3925 3350 3925 3275
Wire Wire Line
	3925 3275 4325 3275
Connection ~ 4325 3275
Wire Wire Line
	3925 3275 3625 3275
Wire Wire Line
	3625 3275 3625 3350
Connection ~ 3925 3275
$Comp
L Device:R_Small R3
U 1 1 5D5C2F17
P 4325 3025
F 0 "R3" H 4384 3071 50  0000 L CNN
F 1 "R_Small" H 4384 2980 50  0000 L CNN
F 2 "Resistor_SMD:R_0603_1608Metric_Pad1.05x0.95mm_HandSolder" H 4325 3025 50  0001 C CNN
F 3 "~" H 4325 3025 50  0001 C CNN
	1    4325 3025
	1    0    0    -1  
$EndComp
Wire Wire Line
	4325 2925 4325 2775
Wire Wire Line
	4325 3725 4075 3725
Wire Wire Line
	4075 3725 4075 3800
Wire Wire Line
	4325 3475 4325 3725
Wire Wire Line
	3925 3650 3925 3725
Wire Wire Line
	3925 3725 4075 3725
Connection ~ 4075 3725
Wire Wire Line
	3925 3725 3625 3725
Wire Wire Line
	3625 3725 3625 3650
Connection ~ 3925 3725
$Comp
L power:VDD #PWR0102
U 1 1 5D5D0B08
P 5725 2650
F 0 "#PWR0102" H 5725 2500 50  0001 C CNN
F 1 "VDD" H 5742 2823 50  0000 C CNN
F 2 "" H 5725 2650 50  0001 C CNN
F 3 "" H 5725 2650 50  0001 C CNN
	1    5725 2650
	1    0    0    -1  
$EndComp
Wire Wire Line
	5475 2825 5725 2825
Wire Wire Line
	5725 2825 5725 2650
Wire Wire Line
	5725 2825 5975 2825
Connection ~ 5725 2825
Wire Wire Line
	5975 3125 5975 3275
Connection ~ 5975 3275
Wire Wire Line
	5300 3375 5775 3375
Wire Wire Line
	5775 3375 5775 3175
Wire Wire Line
	5975 3475 6775 3475
Wire Wire Line
	5975 3275 5975 3475
Wire Wire Line
	5475 3475 5850 3475
Wire Wire Line
	5850 3475 5850 3375
Wire Wire Line
	5850 3375 6775 3375
Connection ~ 5475 3475
Text GLabel 5475 3475 3    50   Input ~ 0
SDA
Text GLabel 5975 3275 2    50   Input ~ 0
SCL
Text GLabel 5775 3175 0    50   Input ~ 0
INT
Wire Wire Line
	5775 3175 6125 3175
Wire Wire Line
	6125 3175 6125 3075
Wire Wire Line
	6125 3075 6775 3075
$EndSCHEMATC
